{
    "aspects": [
      {
        "code": "$pv_3_a_0_code",
        "md": "$pv_3_a_0_text",
        "mde": "$pv_3_a_0_expression"
      },
      {
        "code": "$pv_3_a_1_code",
        "md": "$pv_3_a_1_text",
        "mde": "$pv_3_a_1_expression"
      },
      {
        "code": "$pv_3_a_2_code",
        "md": "$pv_3_a_2_text",
        "mde": "$pv_3_a_2_expression"
      }
    ],
   "defaults": {
      "color": "$pv_3_color"
      },
    "id":"$pv_3_id",
    "bucket": "$pv_3_bucket",
    "component": "wiagl-components/ManageAltComponents",
    "instructions": "$pv_3_preamble_instructions",
    "adjective":"$pv_3_adjective",
    "opposite_adjective":"$pv_3_opposite_adjective",
    "type":"$scaleFrame",
    "personal":true,
    "reminder": "$reminder_text",
    "order":4,
    "skip": {
      "or": [
      {
        "!==" : ["$backend_pv_3_seen", true] 
      },
      {
        "==" : ["$backend_skipManage", true] 
      }
    ] 
    },
    "skip2": {
      "===": [
        "$calibraionsAfterRatings",
        true
      ]
    },
    "workerId": "$workerId",
    "name": "bottomlessA"
  }