{
    "aspects": [
      {
        "code": "$iv_0_a_0_code",
        "image": "$iv_0_a_0_image"
      },
      {
        "code": "$iv_0_a_1_code",
        "image": "$iv_0_a_1_image"
      },
      {
        "code": "$iv_0_a_2_code",
        "image": "$iv_0_a_2_image"
      }
    ],
    "defaults": {
      "color": "$iv_0_color",
      "md": "$iv_0_text"
    },
    "code": "$iv_0_a_0_code",
    "bucket": "$iv_0_bucket",
    "instructions": "$iv_0_preamble_instructions",
    "adjective":"$iv_0_adjective",
    "opposite_adjective": "$iv_0_opposite_adjective",
    "type":"$scaleFrameImpersonal",
    "id":"$iv_0_id",
    "text": "$iv_0_text",
    "personal":false,
    "component": "wiagl-components/ManageAltComponents",
    "override_scale": {"max_point": "Highest level possible", "min_point": "Lowest level possible"},
    "order":1,
    "skip": {
      "or": [
      {
        "!==" : ["$backend_iv_0_seen", true] 
      },
      {
        "==" : ["$backend_skipManage", true] 
      }
    ] 
    },
    "skip2": {
      "or": [
        {
          "===": [
            "$impersonal_before_personal",
            true
          ]
        },{
          "===": [
            "$calibraionsAfterRatings",
            true
          ]
        }
      ]
    },
    "workerId": "$workerId",
    "name": "bottomlessA"
  }