{
    "aspect": {
      "code": 27,
      "color": "$color_27",
      "rating": "$rating_27",
      "text": "$text_27"
    },
    "bucket": "$bucket_27",
    "component": "wiagl-components/Rating",
    "skip": {
      "===": [
        "$short",
        "true"
      ]
    }
  }