{
    "aspect": {
        "code": 39,
        "color": "$color_39",
        "rating": "$rating_39",
        "text": "$text_39"
    },
    "bucket": "$bucket_39",
    "component": "wiagl-components/Rating",
    "skip": {
        "or": [
            {
                "===": [
                    "$short",
                    "true"
                ]
            },
            {
                "and":[{"!==" : ["$blockNumber", 29] },{"!==" : ["$blockNumber", "29"] }]
            }
        ]
    }
}