{
    "aspects": [
      {
        "code": "$iv_2_a_0_code",
        "image": "$iv_2_a_0_image"
      },
      {
        "code": "$iv_2_a_1_code",
        "image": "$iv_2_a_1_image"
      },
      {
        "code": "$iv_2_a_2_code",
        "image": "$iv_2_a_2_image"
      }
    ],
    "defaults": {
      "color": "$iv_2_color",
      "md": "$iv_2_text"
    },
    "code": "$iv_2_a_0_code",
    "bucket": "$iv_2_bucket",
    "text": "$iv_2_text",
    "adjective":"$iv_2_adjective",
    "opposite_adjective":"$iv_2_opposite_adjective",
    "instructions": "$iv_2_preamble_instructions",
    "type":"$scaleFrameImpersonal",
    "personal":false,
    "id":"$iv_2_id",
    "component": "wiagl-components/ManageAltComponents",
    "override_scale": {"max_point": "Highest level possible", "min_point": "Lowest level possible"},
    "order":3,
    "skip": {
      "or": [
      {
        "!==" : ["$backend_iv_2_seen", true] 
      },
      {
        "==" : ["$backend_skipManage", true] 
      }
    ] 
    },
    "skip2": {
      "or": [
        {
          "===": [
            "$personal_before_impersonal",
            true
          ]
        },{
          "===": [
            "$calibraionsAfterRatings",
            false
          ]
        }
      ]
    },
    "workerId": "$workerId",
    "name": "bottomlessA"
}